%YAML 1.1
%TAG !u! tag:unity3d.com,2011:
--- !u!78 &1
TagManager:
  serializedVersion: 2
  tags:
  - Actor
  - Coin
  layers:
  - Default
  - TransparentFX
  - Ignore Raycast
  - 
  - Water
  - UI
  - 
  - 
  - Collision
  - Actors
  - Coins
  - Foo
  - Bar
  - 
  - 
  - 
  - 
  - 
  - 
  - 
  - 
  - 
  - 
  - 
  - 
  - 
  - 
  - 
  - 
  - 
  - 
  - 
  m_SortingLayers:
  - name: Tilemap
    uniqueID: 4274181977
    locked: 0
  - name: Actors
    uniqueID: 263754425
    locked: 0
  - name: Coins
    uniqueID: 287557743
    locked: 0
  - name: Default
    uniqueID: 0
    locked: 0
